; Engine configuration file.
; It's best edited using the editor UI and not directly,
; since the parameters that go here are not all obvious.
;
; Format:
;   [section] ; section goes between []
;   param=value ; assign values to parameters

config_version=4

_global_script_classes=[ {
"base": "Node2D",
"class": "Background",
"language": "GDScript",
"path": "res://Scripts/backgrounds/Background.gd"
}, {
"base": "Node2D",
"class": "BackgroundManager",
"language": "GDScript",
"path": "res://Scripts/backgrounds/BackgroundManager.gd"
}, {
"base": "KinematicBody2D",
"class": "Bee",
"language": "GDScript",
"path": "res://Scripts/Bee/bee.gd"
}, {
"base": "Node2D",
"class": "CityBackground",
"language": "GDScript",
"path": "res://Scripts/backgrounds/City.gd"
}, {
"base": "Node2D",
"class": "ColorPollen",
"language": "GDScript",
"path": "res://Scripts/Pollen/pollen_color.gd"
}, {
"base": "Node2D",
"class": "CommTowers",
"language": "GDScript",
"path": "res://Scripts/electro_waves/towers/comm_towers.gd"
}, {
"base": "CanvasLayer",
"class": "CounterGroup",
"language": "GDScript",
"path": "res://Scripts/Counter/counter_group.gd"
}, {
"base": "Control",
"class": "ExtraCounter",
"language": "GDScript",
"path": "res://Scripts/Counter/Extra_Counter.gd"
}, {
"base": "Area2D",
"class": "Flower",
"language": "GDScript",
"path": "res://Scripts/Flowers/Flower.gd"
}, {
"base": "CanvasLayer",
"class": "GUI",
"language": "GDScript",
"path": "res://Scripts/user_interface/UI_Manager.gd"
}, {
"base": "Node2D",
"class": "Generator",
"language": "GDScript",
"path": "res://Scripts/electro_waves/projectile_generator.gd"
}, {
"base": "Node2D",
"class": "HiveBackground",
"language": "GDScript",
"path": "res://Scripts/backgrounds/Hive.gd"
}, {
"base": "Node2D",
"class": "Level",
"language": "GDScript",
"path": "res://Scripts/games/Level.gd"
}, {
"base": "Node2D",
"class": "LevelController",
"language": "GDScript",
"path": "res://Scripts/electro_waves/towers/level_controller.gd"
}, {
"base": "Object",
"class": "LevelResources",
"language": "GDScript",
"path": "res://Scripts/games/LevelResources.gd"
}, {
"base": "Node2D",
"class": "LevelsManager",
"language": "GDScript",
"path": "res://Scripts/games/LevelsManager.gd"
}, {
"base": "Node2D",
"class": "ParkBackground",
"language": "GDScript",
"path": "res://Scripts/backgrounds/Park.gd"
}, {
"base": "Area2D",
"class": "Pollen",
"language": "GDScript",
"path": "res://Scripts/Pollen/pollen_controller.gd"
}, {
"base": "Node2D",
"class": "PollenCollectionSounds",
"language": "GDScript",
"path": "res://Scripts/sound_fx/PollenCollectionSounds.gd"
}, {
"base": "Node",
"class": "PollenScoreManager",
"language": "GDScript",
"path": "res://Scripts/Score/PollenScoreManager.gd"
}, {
"base": "Area2D",
"class": "Projectile",
"language": "GDScript",
"path": "res://Scripts/electro_waves/projectile.gd"
}, {
"base": "Node",
"class": "ScoreManager",
"language": "GDScript",
"path": "res://Scripts/Score/ScoreManager.gd"
}, {
"base": "Node2D",
"class": "SequenceCollectionManager",
"language": "GDScript",
"path": "res://Scripts/Score/SequenceCollectionManager.gd"
}, {
"base": "AudioStreamPlayer",
"class": "Sound",
"language": "GDScript",
"path": "res://Scripts/Singleton_sounds/Sound.gd"
}, {
"base": "Node",
"class": "StressBarManager",
"language": "GDScript",
"path": "res://Scripts/Score/StressBarManager.gd"
}, {
"base": "Area2D",
"class": "TrackProjectile",
"language": "GDScript",
"path": "res://Scripts/electro_waves/tracking_projectile.gd"
} ]
_global_script_class_icons={
"Background": "",
"BackgroundManager": "",
"Bee": "",
"CityBackground": "",
"ColorPollen": "",
"CommTowers": "",
"CounterGroup": "",
"ExtraCounter": "",
"Flower": "",
"GUI": "",
"Generator": "",
"HiveBackground": "",
"Level": "",
"LevelController": "",
"LevelResources": "",
"LevelsManager": "",
"ParkBackground": "",
"Pollen": "",
"PollenCollectionSounds": "",
"PollenScoreManager": "",
"Projectile": "",
"ScoreManager": "",
"SequenceCollectionManager": "",
"Sound": "",
"StressBarManager": "",
"TrackProjectile": ""
}

[application]

config/name="BeeGame"
run/main_scene="res://Game/MainScene.tscn"
config/icon="res://Icono para la app - oficial 1.png"

[autoload]

Colors="*res://Scripts/Pollen/color.gd"
SingletonSound="*res://Scripts/Singleton_sounds/singleton_sound.gd"
UI_Events="*res://Scripts/user_interface/Events.gd"
Game_Events="*res://Scripts/games/Events.gd"
ItemsGenerator="*res://Scripts/singelton/items_generator.gd"
GlobalVariables="*res://Scripts/games/GlobalVariables.gd"
GameControl="*res://Scripts/settings_menu/game_control.gd"

[display]

window/stretch/mode="2d"

[global]

window=false

[gui]

common/drop_mouse_on_gui_input_disabled=true

[input]

move_down={
"deadzone": 0.5,
"events": [ Object(InputEventKey,"resource_local_to_scene":false,"resource_name":"","device":0,"alt":false,"shift":false,"control":false,"meta":false,"command":false,"pressed":false,"scancode":0,"physical_scancode":16777234,"unicode":0,"echo":false,"script":null)
 ]
}
move_rigth={
"deadzone": 0.5,
"events": [ Object(InputEventKey,"resource_local_to_scene":false,"resource_name":"","device":0,"alt":false,"shift":false,"control":false,"meta":false,"command":false,"pressed":false,"scancode":0,"physical_scancode":16777233,"unicode":0,"echo":false,"script":null)
 ]
}
move_left={
"deadzone": 0.5,
"events": [ Object(InputEventKey,"resource_local_to_scene":false,"resource_name":"","device":0,"alt":false,"shift":false,"control":false,"meta":false,"command":false,"pressed":false,"scancode":0,"physical_scancode":16777231,"unicode":0,"echo":false,"script":null)
 ]
}
move_up={
"deadzone": 0.5,
"events": [ Object(InputEventKey,"resource_local_to_scene":false,"resource_name":"","device":0,"alt":false,"shift":false,"control":false,"meta":false,"command":false,"pressed":false,"scancode":0,"physical_scancode":16777232,"unicode":0,"echo":false,"script":null)
 ]
}

[input_devices]

pointing/emulate_touch_from_mouse=true

[locale]

translations=PoolStringArray( "res://Language/language_support.en_US.translation", "res://Language/language_support.es_ES.translation", "res://Language/language_support.csv" )
locale_filter=[ 0, [ "en_US", "es_ES" ] ]

[mono]

project/assembly_name="BeeGame"

[physics]

common/enable_pause_aware_picking=true

[rendering]

environment/default_environment="res://UI/default_env.tres"
