[gd_scene load_steps=6 format=2]

[ext_resource path="res://Scripts/load_bar/LevelProgressLoadBar.gd" type="Script" id=1]
[ext_resource path="res://Assets/animations/Bee/Bee Sprite.png" type="Texture" id=2]

[sub_resource type="Theme" id=1]

[sub_resource type="StyleBoxFlat" id=2]
bg_color = Color( 0.596078, 0.776471, 0.819608, 1 )
border_width_left = 2
border_width_top = 2
border_width_right = 1
border_width_bottom = 2
border_color = Color( 0.2, 0.14902, 0.14902, 0.494118 )
corner_radius_top_left = 5
corner_radius_bottom_left = 5
shadow_color = Color( 0.2, 0.137255, 0.137255, 0.6 )
shadow_size = 8

[sub_resource type="StyleBoxFlat" id=3]
bg_color = Color( 0.866667, 0.917647, 0.784314, 1 )
border_width_left = 2
border_width_top = 2
border_width_right = 2
border_width_bottom = 2
border_color = Color( 0.0470588, 0.0156863, 0.0156863, 1 )
border_blend = true
corner_radius_top_left = 5
corner_radius_top_right = 5
corner_radius_bottom_right = 5
corner_radius_bottom_left = 5

[node name="Control" type="CanvasLayer"]
layer = 9
script = ExtResource( 1 )

[node name="Bar" type="ProgressBar" parent="."]
anchor_top = 1.0
anchor_right = 1.0
anchor_bottom = 1.0
margin_left = 53.0
margin_top = -28.0
margin_right = -71.0
margin_bottom = -10.0
theme = SubResource( 1 )
custom_colors/font_color = Color( 0, 0, 0, 1 )
custom_colors/font_color_shadow = Color( 0, 0, 0, 1 )
custom_styles/fg = SubResource( 2 )
custom_styles/bg = SubResource( 3 )

[node name="Sprite" type="Sprite" parent="."]
position = Vector2( 68, 578 )
scale = Vector2( 0.05, 0.05 )
texture = ExtResource( 2 )
flip_h = true
hframes = 4
vframes = 2
frame = 2
