[gd_scene load_steps=5 format=2]

[ext_resource path="res://Scripts/Score/stress_button.gd" type="Script" id=1]
[ext_resource path="res://Assets/stress_indicator/heart_plus.png" type="Texture" id=2]

[sub_resource type="Theme" id=1]

[sub_resource type="StyleBoxFlat" id=2]
bg_color = Color( 1, 0.831373, 0, 1 )
border_width_left = 4
border_width_top = 4
border_width_right = 4
border_width_bottom = 4
border_color = Color( 0.45098, 0.239216, 0.054902, 1 )
corner_radius_top_left = 150
corner_radius_top_right = 150
corner_radius_bottom_right = 150
corner_radius_bottom_left = 150

[node name="Node2D" type="CanvasLayer"]
script = ExtResource( 1 )

[node name="ColorRect" type="Panel" parent="."]
anchor_left = 0.5
anchor_right = 0.5
margin_left = 189.0
margin_top = 368.0
margin_right = 457.0
margin_bottom = 631.0
rect_scale = Vector2( 0.4, 0.4 )
rect_pivot_offset = Vector2( 219.5, 59 )
theme = SubResource( 1 )
custom_styles/panel = SubResource( 2 )
__meta__ = {
"_edit_group_": true
}

[node name="TouchScreenButton" type="TouchScreenButton" parent="."]
position = Vector2( 851, 424 )
scale = Vector2( 0.0883084, 0.0934843 )
z_index = 100
normal = ExtResource( 2 )

[connection signal="pressed" from="TouchScreenButton" to="." method="_on_TouchScreenButton_pressed"]
